<?xml version="1.0" encoding="utf-8"?>
<!DOCTYPE eagle SYSTEM "eagle.dtd">
<eagle version="7.7.0">
<drawing>
<settings>
<setting alwaysvectorfont="no"/>
<setting verticaltext="up"/>
</settings>
<grid distance="1" unitdist="mic" unit="mic" style="lines" multiple="1" display="no" altdistance="0.01" altunitdist="inch" altunit="inch"/>
<layers>
<layer number="1" name="Top" color="4" fill="1" visible="yes" active="yes"/>
<layer number="2" name="Route2" color="1" fill="3" visible="no" active="yes"/>
<layer number="3" name="Route3" color="4" fill="3" visible="no" active="yes"/>
<layer number="4" name="Route4" color="1" fill="4" visible="no" active="yes"/>
<layer number="5" name="Route5" color="4" fill="4" visible="no" active="yes"/>
<layer number="6" name="Route6" color="1" fill="8" visible="no" active="yes"/>
<layer number="7" name="Route7" color="4" fill="8" visible="no" active="yes"/>
<layer number="8" name="Route8" color="1" fill="2" visible="no" active="yes"/>
<layer number="9" name="Route9" color="4" fill="2" visible="no" active="yes"/>
<layer number="10" name="Route10" color="1" fill="7" visible="no" active="yes"/>
<layer number="11" name="Route11" color="4" fill="7" visible="no" active="yes"/>
<layer number="12" name="Route12" color="1" fill="5" visible="no" active="yes"/>
<layer number="13" name="Route13" color="4" fill="5" visible="no" active="yes"/>
<layer number="14" name="Route14" color="1" fill="6" visible="no" active="yes"/>
<layer number="15" name="Route15" color="4" fill="6" visible="no" active="yes"/>
<layer number="16" name="Bottom" color="1" fill="1" visible="yes" active="yes"/>
<layer number="17" name="Pads" color="2" fill="1" visible="yes" active="yes"/>
<layer number="18" name="Vias" color="2" fill="1" visible="yes" active="yes"/>
<layer number="19" name="Unrouted" color="6" fill="1" visible="yes" active="yes"/>
<layer number="20" name="Dimension" color="24" fill="1" visible="yes" active="yes"/>
<layer number="21" name="tPlace" color="7" fill="1" visible="yes" active="yes"/>
<layer number="22" name="bPlace" color="7" fill="1" visible="yes" active="yes"/>
<layer number="23" name="tOrigins" color="15" fill="1" visible="yes" active="yes"/>
<layer number="24" name="bOrigins" color="15" fill="1" visible="yes" active="yes"/>
<layer number="25" name="tNames" color="7" fill="1" visible="yes" active="yes"/>
<layer number="26" name="bNames" color="7" fill="1" visible="yes" active="yes"/>
<layer number="27" name="tValues" color="7" fill="1" visible="yes" active="yes"/>
<layer number="28" name="bValues" color="7" fill="1" visible="yes" active="yes"/>
<layer number="29" name="tStop" color="7" fill="3" visible="no" active="yes"/>
<layer number="30" name="bStop" color="7" fill="6" visible="no" active="yes"/>
<layer number="31" name="tCream" color="7" fill="4" visible="no" active="yes"/>
<layer number="32" name="bCream" color="7" fill="5" visible="no" active="yes"/>
<layer number="33" name="tFinish" color="6" fill="3" visible="no" active="yes"/>
<layer number="34" name="bFinish" color="6" fill="6" visible="no" active="yes"/>
<layer number="35" name="tGlue" color="7" fill="4" visible="no" active="yes"/>
<layer number="36" name="bGlue" color="7" fill="5" visible="no" active="yes"/>
<layer number="37" name="tTest" color="7" fill="1" visible="no" active="yes"/>
<layer number="38" name="bTest" color="7" fill="1" visible="no" active="yes"/>
<layer number="39" name="tKeepout" color="4" fill="11" visible="yes" active="yes"/>
<layer number="40" name="bKeepout" color="1" fill="11" visible="yes" active="yes"/>
<layer number="41" name="tRestrict" color="4" fill="10" visible="yes" active="yes"/>
<layer number="42" name="bRestrict" color="1" fill="10" visible="yes" active="yes"/>
<layer number="43" name="vRestrict" color="2" fill="10" visible="yes" active="yes"/>
<layer number="44" name="Drills" color="7" fill="1" visible="no" active="yes"/>
<layer number="45" name="Holes" color="7" fill="1" visible="no" active="yes"/>
<layer number="46" name="Milling" color="3" fill="1" visible="no" active="yes"/>
<layer number="47" name="Measures" color="7" fill="1" visible="no" active="yes"/>
<layer number="48" name="Document" color="7" fill="1" visible="yes" active="yes"/>
<layer number="49" name="Reference" color="7" fill="1" visible="yes" active="yes"/>
<layer number="51" name="tDocu" color="7" fill="1" visible="yes" active="yes"/>
<layer number="52" name="bDocu" color="7" fill="1" visible="yes" active="yes"/>
<layer number="90" name="Modules" color="5" fill="1" visible="yes" active="yes"/>
<layer number="91" name="Nets" color="2" fill="1" visible="yes" active="yes"/>
<layer number="92" name="Busses" color="1" fill="1" visible="yes" active="yes"/>
<layer number="93" name="Pins" color="2" fill="1" visible="yes" active="yes"/>
<layer number="94" name="Symbols" color="4" fill="1" visible="yes" active="yes"/>
<layer number="95" name="Names" color="7" fill="1" visible="yes" active="yes"/>
<layer number="96" name="Values" color="7" fill="1" visible="yes" active="yes"/>
<layer number="97" name="Info" color="7" fill="1" visible="yes" active="yes"/>
<layer number="98" name="Guide" color="6" fill="1" visible="yes" active="yes"/>
<layer number="99" name="SpiceOrder" color="7" fill="1" visible="yes" active="yes"/>
</layers>
<library>
<description>Generated from &lt;b&gt;shield_esquematico.brd&lt;/b&gt;&lt;p&gt;
by exp-lbrs.ulp</description>
<packages>
<package name="CON-MOLEX_KK-156-2">
<description>&lt;b&gt;KK 156 HEADER&lt;/b&gt;&lt;p&gt;
Source: http://www.molex.com/pdm_docs/sd/026604100_sd.pdf</description>
<wire x1="3.81" y1="4.95" x2="2.01" y2="4.95" width="0.2032" layer="21"/>
<wire x1="2.01" y1="4.95" x2="-1.985" y2="4.95" width="0.2032" layer="21"/>
<wire x1="-1.985" y1="4.95" x2="-3.785" y2="4.95" width="0.2032" layer="21"/>
<wire x1="-3.785" y1="4.95" x2="-3.785" y2="-4.825" width="0.2032" layer="21"/>
<wire x1="-3.785" y1="-4.825" x2="3.81" y2="-4.825" width="0.2032" layer="21"/>
<wire x1="3.81" y1="-4.825" x2="3.81" y2="4.95" width="0.2032" layer="21"/>
<wire x1="-1.985" y1="2.525" x2="2.01" y2="2.525" width="0.2032" layer="21"/>
<wire x1="2.01" y1="2.525" x2="2.01" y2="4.95" width="0.2032" layer="21"/>
<wire x1="-1.985" y1="2.525" x2="-1.985" y2="4.95" width="0.2032" layer="21"/>
<pad name="1" x="-1.98" y="0" drill="1.7" diameter="2.1844" shape="long" rot="R90"/>
<pad name="2" x="1.98" y="0" drill="1.7" diameter="2.1844" shape="long" rot="R90"/>
<text x="-4.48" y="-4.445" size="1.27" layer="25" rot="R90">&gt;NAME</text>
<text x="5.75" y="-4.445" size="1.27" layer="27" rot="R90">&gt;VALUE</text>
</package>
<package name="CON-MOLEX_KK-156-3">
<description>&lt;b&gt;KK 156 HEADER&lt;/b&gt;&lt;p&gt;
Source: http://www.molex.com/pdm_docs/sd/026604100_sd.pdf</description>
<wire x1="5.79" y1="4.95" x2="3.99" y2="4.95" width="0.2032" layer="21"/>
<wire x1="3.99" y1="4.95" x2="-3.965" y2="4.95" width="0.2032" layer="21"/>
<wire x1="-3.965" y1="4.95" x2="-5.765" y2="4.95" width="0.2032" layer="21"/>
<wire x1="-5.765" y1="4.95" x2="-5.765" y2="-4.825" width="0.2032" layer="21"/>
<wire x1="-5.765" y1="-4.825" x2="5.79" y2="-4.825" width="0.2032" layer="21"/>
<wire x1="5.79" y1="-4.825" x2="5.79" y2="4.95" width="0.2032" layer="21"/>
<wire x1="-3.965" y1="2.525" x2="3.99" y2="2.525" width="0.2032" layer="21"/>
<wire x1="3.99" y1="2.525" x2="3.99" y2="4.95" width="0.2032" layer="21"/>
<wire x1="-3.965" y1="2.525" x2="-3.965" y2="4.95" width="0.2032" layer="21"/>
<pad name="1" x="-3.96" y="0" drill="1.7" diameter="2.1844" shape="long" rot="R90"/>
<pad name="2" x="0" y="0" drill="1.7" diameter="2.1844" shape="long" rot="R90"/>
<pad name="3" x="3.96" y="0" drill="1.7" diameter="2.1844" shape="long" rot="R90"/>
<text x="-6.46" y="-4.445" size="1.27" layer="25" rot="R90">&gt;NAME</text>
<text x="7.73" y="-4.445" size="1.27" layer="27" rot="R90">&gt;VALUE</text>
</package>
<package name="POST7_ARDUINO_ARDUINO2">
<wire x1="-0.635" y1="-1.27" x2="0.635" y2="-1.27" width="0.3048" layer="21"/>
<wire x1="0.635" y1="-1.27" x2="1.27" y2="-0.635" width="0.3048" layer="21"/>
<wire x1="1.27" y1="-0.635" x2="1.27" y2="0.635" width="0.3048" layer="21"/>
<wire x1="1.27" y1="0.635" x2="0.635" y2="1.27" width="0.3048" layer="21"/>
<wire x1="0.635" y1="1.27" x2="1.27" y2="1.905" width="0.3048" layer="21"/>
<wire x1="1.27" y1="1.905" x2="1.27" y2="3.175" width="0.3048" layer="21"/>
<wire x1="1.27" y1="3.175" x2="0.635" y2="3.81" width="0.3048" layer="21"/>
<wire x1="0.635" y1="3.81" x2="1.27" y2="4.445" width="0.3048" layer="21"/>
<wire x1="1.27" y1="4.445" x2="1.27" y2="5.715" width="0.3048" layer="21"/>
<wire x1="1.27" y1="5.715" x2="0.635" y2="6.35" width="0.3048" layer="21"/>
<wire x1="0.635" y1="6.35" x2="1.27" y2="6.985" width="0.3048" layer="21"/>
<wire x1="1.27" y1="6.985" x2="1.27" y2="8.255" width="0.3048" layer="21"/>
<wire x1="1.27" y1="8.255" x2="0.635" y2="8.89" width="0.3048" layer="21"/>
<wire x1="0.635" y1="8.89" x2="1.27" y2="9.525" width="0.3048" layer="21"/>
<wire x1="1.27" y1="9.525" x2="1.27" y2="10.795" width="0.3048" layer="21"/>
<wire x1="1.27" y1="10.795" x2="0.635" y2="11.43" width="0.3048" layer="21"/>
<wire x1="0.635" y1="11.43" x2="1.27" y2="12.065" width="0.3048" layer="21"/>
<wire x1="1.27" y1="12.065" x2="1.27" y2="13.335" width="0.3048" layer="21"/>
<wire x1="1.27" y1="13.335" x2="0.635" y2="13.97" width="0.3048" layer="21"/>
<wire x1="0.635" y1="13.97" x2="-0.635" y2="13.97" width="0.3048" layer="21"/>
<wire x1="-0.635" y1="13.97" x2="-1.27" y2="13.335" width="0.3048" layer="21"/>
<wire x1="-1.27" y1="13.335" x2="-1.27" y2="12.065" width="0.3048" layer="21"/>
<wire x1="-1.27" y1="12.065" x2="-0.635" y2="11.43" width="0.3048" layer="21"/>
<wire x1="-0.635" y1="11.43" x2="-1.27" y2="10.795" width="0.3048" layer="21"/>
<wire x1="-1.27" y1="10.795" x2="-1.27" y2="9.525" width="0.3048" layer="21"/>
<wire x1="-1.27" y1="9.525" x2="-0.635" y2="8.89" width="0.3048" layer="21"/>
<wire x1="-0.635" y1="8.89" x2="-1.27" y2="8.255" width="0.3048" layer="21"/>
<wire x1="-1.27" y1="8.255" x2="-1.27" y2="6.985" width="0.3048" layer="21"/>
<wire x1="-1.27" y1="6.985" x2="-0.635" y2="6.35" width="0.3048" layer="21"/>
<wire x1="-0.635" y1="6.35" x2="-1.27" y2="5.715" width="0.3048" layer="21"/>
<wire x1="-1.27" y1="5.715" x2="-1.27" y2="4.445" width="0.3048" layer="21"/>
<wire x1="-1.27" y1="4.445" x2="-0.635" y2="3.81" width="0.3048" layer="21"/>
<wire x1="-0.635" y1="3.81" x2="-1.27" y2="3.175" width="0.3048" layer="21"/>
<wire x1="-1.27" y1="3.175" x2="-1.27" y2="1.905" width="0.3048" layer="21"/>
<wire x1="-1.27" y1="1.905" x2="-0.635" y2="1.27" width="0.3048" layer="21"/>
<wire x1="-0.635" y1="1.27" x2="-1.27" y2="0.635" width="0.3048" layer="21"/>
<wire x1="-1.27" y1="0.635" x2="-1.27" y2="-0.635" width="0.3048" layer="21"/>
<wire x1="-1.27" y1="-0.635" x2="-0.635" y2="-1.27" width="0.3048" layer="21"/>
<wire x1="-0.635" y1="16.51" x2="0.635" y2="16.51" width="0.3048" layer="21"/>
<wire x1="0.635" y1="16.51" x2="1.27" y2="17.145" width="0.3048" layer="21"/>
<wire x1="1.27" y1="17.145" x2="1.27" y2="18.415" width="0.3048" layer="21"/>
<wire x1="1.27" y1="18.415" x2="0.635" y2="19.05" width="0.3048" layer="21"/>
<wire x1="0.635" y1="19.05" x2="1.27" y2="19.685" width="0.3048" layer="21"/>
<wire x1="1.27" y1="19.685" x2="1.27" y2="20.955" width="0.3048" layer="21"/>
<wire x1="1.27" y1="20.955" x2="0.635" y2="21.59" width="0.3048" layer="21"/>
<wire x1="0.635" y1="21.59" x2="1.27" y2="22.225" width="0.3048" layer="21"/>
<wire x1="1.27" y1="22.225" x2="1.27" y2="23.495" width="0.3048" layer="21"/>
<wire x1="1.27" y1="23.495" x2="0.635" y2="24.13" width="0.3048" layer="21"/>
<wire x1="0.635" y1="24.13" x2="1.27" y2="24.765" width="0.3048" layer="21"/>
<wire x1="1.27" y1="24.765" x2="1.27" y2="26.035" width="0.3048" layer="21"/>
<wire x1="1.27" y1="26.035" x2="0.635" y2="26.67" width="0.3048" layer="21"/>
<wire x1="0.635" y1="26.67" x2="1.27" y2="27.305" width="0.3048" layer="21"/>
<wire x1="1.27" y1="27.305" x2="1.27" y2="28.575" width="0.3048" layer="21"/>
<wire x1="1.27" y1="28.575" x2="0.635" y2="29.21" width="0.3048" layer="21"/>
<wire x1="0.635" y1="29.21" x2="1.27" y2="29.845" width="0.3048" layer="21"/>
<wire x1="1.27" y1="29.845" x2="1.27" y2="31.115" width="0.3048" layer="21"/>
<wire x1="1.27" y1="31.115" x2="0.635" y2="31.75" width="0.3048" layer="21"/>
<wire x1="0.635" y1="31.75" x2="-0.635" y2="31.75" width="0.3048" layer="21"/>
<wire x1="-0.635" y1="31.75" x2="-1.27" y2="31.115" width="0.3048" layer="21"/>
<wire x1="-1.27" y1="31.115" x2="-1.27" y2="29.845" width="0.3048" layer="21"/>
<wire x1="-1.27" y1="29.845" x2="-0.635" y2="29.21" width="0.3048" layer="21"/>
<wire x1="-0.635" y1="29.21" x2="-1.27" y2="28.575" width="0.3048" layer="21"/>
<wire x1="-1.27" y1="28.575" x2="-1.27" y2="27.305" width="0.3048" layer="21"/>
<wire x1="-1.27" y1="27.305" x2="-0.635" y2="26.67" width="0.3048" layer="21"/>
<wire x1="-0.635" y1="26.67" x2="-1.27" y2="26.035" width="0.3048" layer="21"/>
<wire x1="-1.27" y1="26.035" x2="-1.27" y2="24.765" width="0.3048" layer="21"/>
<wire x1="-1.27" y1="24.765" x2="-0.635" y2="24.13" width="0.3048" layer="21"/>
<wire x1="-0.635" y1="24.13" x2="-1.27" y2="23.495" width="0.3048" layer="21"/>
<wire x1="-1.27" y1="23.495" x2="-1.27" y2="22.225" width="0.3048" layer="21"/>
<wire x1="-1.27" y1="22.225" x2="-0.635" y2="21.59" width="0.3048" layer="21"/>
<wire x1="-0.635" y1="21.59" x2="-1.27" y2="20.955" width="0.3048" layer="21"/>
<wire x1="-1.27" y1="20.955" x2="-1.27" y2="19.685" width="0.3048" layer="21"/>
<wire x1="-1.27" y1="19.685" x2="-0.635" y2="19.05" width="0.3048" layer="21"/>
<wire x1="-0.635" y1="19.05" x2="-1.27" y2="18.415" width="0.3048" layer="21"/>
<wire x1="-1.27" y1="18.415" x2="-1.27" y2="17.145" width="0.3048" layer="21"/>
<wire x1="-1.27" y1="17.145" x2="-0.635" y2="16.51" width="0.3048" layer="21"/>
<wire x1="47.625" y1="-1.27" x2="48.895" y2="-1.27" width="0.3048" layer="21"/>
<wire x1="48.895" y1="-1.27" x2="49.53" y2="-0.635" width="0.3048" layer="21"/>
<wire x1="49.53" y1="-0.635" x2="49.53" y2="0.635" width="0.3048" layer="21"/>
<wire x1="49.53" y1="0.635" x2="48.895" y2="1.27" width="0.3048" layer="21"/>
<wire x1="48.895" y1="1.27" x2="49.53" y2="1.905" width="0.3048" layer="21"/>
<wire x1="49.53" y1="1.905" x2="49.53" y2="3.175" width="0.3048" layer="21"/>
<wire x1="49.53" y1="3.175" x2="48.895" y2="3.81" width="0.3048" layer="21"/>
<wire x1="48.895" y1="3.81" x2="49.53" y2="4.445" width="0.3048" layer="21"/>
<wire x1="49.53" y1="4.445" x2="49.53" y2="5.715" width="0.3048" layer="21"/>
<wire x1="49.53" y1="5.715" x2="48.895" y2="6.35" width="0.3048" layer="21"/>
<wire x1="48.895" y1="6.35" x2="49.53" y2="6.985" width="0.3048" layer="21"/>
<wire x1="49.53" y1="6.985" x2="49.53" y2="8.255" width="0.3048" layer="21"/>
<wire x1="49.53" y1="8.255" x2="48.895" y2="8.89" width="0.3048" layer="21"/>
<wire x1="48.895" y1="8.89" x2="49.53" y2="9.525" width="0.3048" layer="21"/>
<wire x1="49.53" y1="9.525" x2="49.53" y2="10.795" width="0.3048" layer="21"/>
<wire x1="49.53" y1="10.795" x2="48.895" y2="11.43" width="0.3048" layer="21"/>
<wire x1="48.895" y1="11.43" x2="49.53" y2="12.065" width="0.3048" layer="21"/>
<wire x1="49.53" y1="12.065" x2="49.53" y2="13.335" width="0.3048" layer="21"/>
<wire x1="49.53" y1="13.335" x2="48.895" y2="13.97" width="0.3048" layer="21"/>
<wire x1="48.895" y1="13.97" x2="49.53" y2="14.605" width="0.3048" layer="21"/>
<wire x1="49.53" y1="14.605" x2="49.53" y2="15.875" width="0.3048" layer="21"/>
<wire x1="49.53" y1="15.875" x2="48.895" y2="16.51" width="0.3048" layer="21"/>
<wire x1="48.895" y1="16.51" x2="49.53" y2="17.145" width="0.3048" layer="21"/>
<wire x1="49.53" y1="17.145" x2="49.53" y2="18.415" width="0.3048" layer="21"/>
<wire x1="49.53" y1="18.415" x2="48.895" y2="19.05" width="0.3048" layer="21"/>
<wire x1="48.895" y1="19.05" x2="47.625" y2="19.05" width="0.3048" layer="21"/>
<wire x1="47.625" y1="19.05" x2="46.99" y2="18.415" width="0.3048" layer="21"/>
<wire x1="46.99" y1="18.415" x2="46.99" y2="17.145" width="0.3048" layer="21"/>
<wire x1="46.99" y1="17.145" x2="47.625" y2="16.51" width="0.3048" layer="21"/>
<wire x1="47.625" y1="16.51" x2="46.99" y2="15.875" width="0.3048" layer="21"/>
<wire x1="46.99" y1="15.875" x2="46.99" y2="14.605" width="0.3048" layer="21"/>
<wire x1="46.99" y1="14.605" x2="47.625" y2="13.97" width="0.3048" layer="21"/>
<wire x1="47.625" y1="13.97" x2="46.99" y2="13.335" width="0.3048" layer="21"/>
<wire x1="46.99" y1="13.335" x2="46.99" y2="12.065" width="0.3048" layer="21"/>
<wire x1="46.99" y1="12.065" x2="47.625" y2="11.43" width="0.3048" layer="21"/>
<wire x1="47.625" y1="11.43" x2="46.99" y2="10.795" width="0.3048" layer="21"/>
<wire x1="46.99" y1="10.795" x2="46.99" y2="9.525" width="0.3048" layer="21"/>
<wire x1="46.99" y1="9.525" x2="47.625" y2="8.89" width="0.3048" layer="21"/>
<wire x1="47.625" y1="8.89" x2="46.99" y2="8.255" width="0.3048" layer="21"/>
<wire x1="46.99" y1="8.255" x2="46.99" y2="6.985" width="0.3048" layer="21"/>
<wire x1="46.99" y1="6.985" x2="47.625" y2="6.35" width="0.3048" layer="21"/>
<wire x1="47.625" y1="6.35" x2="46.99" y2="5.715" width="0.3048" layer="21"/>
<wire x1="46.99" y1="5.715" x2="46.99" y2="4.445" width="0.3048" layer="21"/>
<wire x1="46.99" y1="4.445" x2="47.625" y2="3.81" width="0.3048" layer="21"/>
<wire x1="47.625" y1="3.81" x2="46.99" y2="3.175" width="0.3048" layer="21"/>
<wire x1="46.99" y1="3.175" x2="46.99" y2="1.905" width="0.3048" layer="21"/>
<wire x1="46.99" y1="1.905" x2="47.625" y2="1.27" width="0.3048" layer="21"/>
<wire x1="47.625" y1="1.27" x2="46.99" y2="0.635" width="0.3048" layer="21"/>
<wire x1="46.99" y1="0.635" x2="46.99" y2="-0.635" width="0.3048" layer="21"/>
<wire x1="46.99" y1="-0.635" x2="47.625" y2="-1.27" width="0.3048" layer="21"/>
<wire x1="47.625" y1="20.32" x2="48.895" y2="20.32" width="0.3048" layer="21"/>
<wire x1="48.895" y1="20.32" x2="49.53" y2="20.955" width="0.3048" layer="21"/>
<wire x1="49.53" y1="20.955" x2="49.53" y2="22.225" width="0.3048" layer="21"/>
<wire x1="49.53" y1="22.225" x2="48.895" y2="22.86" width="0.3048" layer="21"/>
<wire x1="48.895" y1="22.86" x2="49.53" y2="23.495" width="0.3048" layer="21"/>
<wire x1="49.53" y1="23.495" x2="49.53" y2="24.765" width="0.3048" layer="21"/>
<wire x1="49.53" y1="24.765" x2="48.895" y2="25.4" width="0.3048" layer="21"/>
<wire x1="48.895" y1="25.4" x2="49.53" y2="26.035" width="0.3048" layer="21"/>
<wire x1="49.53" y1="26.035" x2="49.53" y2="27.305" width="0.3048" layer="21"/>
<wire x1="49.53" y1="27.305" x2="48.895" y2="27.94" width="0.3048" layer="21"/>
<wire x1="48.895" y1="27.94" x2="49.53" y2="28.575" width="0.3048" layer="21"/>
<wire x1="49.53" y1="28.575" x2="49.53" y2="29.845" width="0.3048" layer="21"/>
<wire x1="49.53" y1="29.845" x2="48.895" y2="30.48" width="0.3048" layer="21"/>
<wire x1="48.895" y1="30.48" x2="49.53" y2="31.115" width="0.3048" layer="21"/>
<wire x1="49.53" y1="31.115" x2="49.53" y2="32.385" width="0.3048" layer="21"/>
<wire x1="49.53" y1="32.385" x2="48.895" y2="33.02" width="0.3048" layer="21"/>
<wire x1="48.895" y1="33.02" x2="49.53" y2="33.655" width="0.3048" layer="21"/>
<wire x1="49.53" y1="33.655" x2="49.53" y2="34.925" width="0.3048" layer="21"/>
<wire x1="49.53" y1="34.925" x2="48.895" y2="35.56" width="0.3048" layer="21"/>
<wire x1="48.895" y1="35.56" x2="49.53" y2="36.195" width="0.3048" layer="21"/>
<wire x1="49.53" y1="36.195" x2="49.53" y2="37.465" width="0.3048" layer="21"/>
<wire x1="49.53" y1="37.465" x2="48.895" y2="38.1" width="0.3048" layer="21"/>
<wire x1="48.895" y1="38.1" x2="49.53" y2="38.735" width="0.3048" layer="21"/>
<wire x1="49.53" y1="38.735" x2="49.53" y2="40.005" width="0.3048" layer="21"/>
<wire x1="49.53" y1="40.005" x2="48.895" y2="40.64" width="0.3048" layer="21"/>
<wire x1="48.895" y1="40.64" x2="47.625" y2="40.64" width="0.3048" layer="21"/>
<wire x1="47.625" y1="40.64" x2="46.99" y2="40.005" width="0.3048" layer="21"/>
<wire x1="46.99" y1="40.005" x2="46.99" y2="38.735" width="0.3048" layer="21"/>
<wire x1="46.99" y1="38.735" x2="47.625" y2="38.1" width="0.3048" layer="21"/>
<wire x1="47.625" y1="38.1" x2="46.99" y2="37.465" width="0.3048" layer="21"/>
<wire x1="46.99" y1="37.465" x2="46.99" y2="36.195" width="0.3048" layer="21"/>
<wire x1="46.99" y1="36.195" x2="47.625" y2="35.56" width="0.3048" layer="21"/>
<wire x1="47.625" y1="35.56" x2="46.99" y2="34.925" width="0.3048" layer="21"/>
<wire x1="46.99" y1="34.925" x2="46.99" y2="33.655" width="0.3048" layer="21"/>
<wire x1="46.99" y1="33.655" x2="47.625" y2="33.02" width="0.3048" layer="21"/>
<wire x1="47.625" y1="33.02" x2="46.99" y2="32.385" width="0.3048" layer="21"/>
<wire x1="46.99" y1="32.385" x2="46.99" y2="31.115" width="0.3048" layer="21"/>
<wire x1="46.99" y1="31.115" x2="47.625" y2="30.48" width="0.3048" layer="21"/>
<wire x1="47.625" y1="30.48" x2="46.99" y2="29.845" width="0.3048" layer="21"/>
<wire x1="46.99" y1="29.845" x2="46.99" y2="28.575" width="0.3048" layer="21"/>
<wire x1="46.99" y1="28.575" x2="47.625" y2="27.94" width="0.3048" layer="21"/>
<wire x1="47.625" y1="27.94" x2="46.99" y2="27.305" width="0.3048" layer="21"/>
<wire x1="46.99" y1="27.305" x2="46.99" y2="26.035" width="0.3048" layer="21"/>
<wire x1="46.99" y1="26.035" x2="47.625" y2="25.4" width="0.3048" layer="21"/>
<wire x1="47.625" y1="25.4" x2="46.99" y2="24.765" width="0.3048" layer="21"/>
<wire x1="46.99" y1="24.765" x2="46.99" y2="23.495" width="0.3048" layer="21"/>
<wire x1="46.99" y1="23.495" x2="47.625" y2="22.86" width="0.3048" layer="21"/>
<wire x1="47.625" y1="22.86" x2="46.99" y2="22.225" width="0.3048" layer="21"/>
<wire x1="46.99" y1="22.225" x2="46.99" y2="20.955" width="0.3048" layer="21"/>
<wire x1="46.99" y1="20.955" x2="47.625" y2="20.32" width="0.3048" layer="21"/>
<pad name="0" x="0" y="12.7" drill="1" diameter="1.9304" shape="long"/>
<pad name="1" x="0" y="10.16" drill="1" diameter="1.9304" shape="long"/>
<pad name="2" x="0" y="7.62" drill="1" diameter="1.9304" shape="long"/>
<pad name="02" x="48.26" y="5.08" drill="1" diameter="1.9304" shape="long"/>
<pad name="3" x="0" y="5.08" drill="1" diameter="1.9304" shape="long"/>
<pad name="3V3" x="0" y="27.94" drill="1" diameter="1.9304" shape="long"/>
<pad name="4" x="0" y="2.54" drill="1" diameter="1.9304" shape="long"/>
<pad name="04" x="48.26" y="10.16" drill="1" diameter="1.9304" shape="long"/>
<pad name="5" x="0" y="0" drill="1" diameter="1.9304" shape="long"/>
<pad name="5V" x="0" y="25.4" drill="1" diameter="1.9304" shape="long"/>
<pad name="07" x="48.26" y="17.78" drill="1" diameter="1.9304" shape="long"/>
<pad name="08" x="48.26" y="21.59" drill="1" diameter="1.9304" shape="long"/>
<pad name="12" x="48.26" y="31.75" drill="1" diameter="1.9304" shape="long"/>
<pad name="13" x="48.26" y="34.29" drill="1" diameter="1.9304" shape="long"/>
<pad name="AREF" x="48.26" y="39.37" drill="1" diameter="1.9304" shape="long"/>
<pad name="GND" x="0" y="22.86" drill="1" diameter="1.9304" shape="long"/>
<pad name="GND1" x="0" y="20.32" drill="1" diameter="1.9304" shape="long"/>
<pad name="GND2" x="48.26" y="36.83" drill="1" diameter="1.9304" shape="long"/>
<pad name="PWM_03" x="48.26" y="7.62" drill="1" diameter="1.9304" shape="long"/>
<pad name="PWM_05" x="48.26" y="12.7" drill="1" diameter="1.9304" shape="long"/>
<pad name="PWM_06" x="48.26" y="15.24" drill="1" diameter="1.9304" shape="long"/>
<pad name="PWM_09" x="48.26" y="24.13" drill="1" diameter="1.9304" shape="long"/>
<pad name="PWM_10" x="48.26" y="26.67" drill="1" diameter="1.9304" shape="long"/>
<pad name="PWM_11" x="48.26" y="29.21" drill="1" diameter="1.9304" shape="long"/>
<pad name="RESET" x="0" y="30.48" drill="1" diameter="1.9304" shape="long"/>
<pad name="RX_00" x="48.26" y="0" drill="1" diameter="1.9304" shape="long"/>
<pad name="TX_01" x="48.26" y="2.54" drill="1" diameter="1.9304" shape="long"/>
<pad name="VIN" x="0" y="17.78" drill="1" diameter="1.9304" shape="long"/>
</package>
<package name="RESISTOR_0309/10">
<description>&lt;b&gt;RESISTOR&lt;/b&gt;&lt;p&gt;
type 0309, grid 10mm</description>
<wire x1="-4.699" y1="0" x2="-5.08" y2="0" width="0.6096" layer="51"/>
<wire x1="-4.318" y1="1.27" x2="-4.064" y2="1.524" width="0.1524" layer="21" curve="-90"/>
<wire x1="-4.318" y1="-1.27" x2="-4.064" y2="-1.524" width="0.1524" layer="21" curve="90"/>
<wire x1="4.064" y1="-1.524" x2="4.318" y2="-1.27" width="0.1524" layer="21" curve="90"/>
<wire x1="4.064" y1="1.524" x2="4.318" y2="1.27" width="0.1524" layer="21" curve="-90"/>
<wire x1="-4.318" y1="-1.27" x2="-4.318" y2="1.27" width="0.1524" layer="51"/>
<wire x1="-4.064" y1="1.524" x2="-3.429" y2="1.524" width="0.1524" layer="21"/>
<wire x1="-3.302" y1="1.397" x2="-3.429" y2="1.524" width="0.1524" layer="21"/>
<wire x1="-4.064" y1="-1.524" x2="-3.429" y2="-1.524" width="0.1524" layer="21"/>
<wire x1="-3.302" y1="-1.397" x2="-3.429" y2="-1.524" width="0.1524" layer="21"/>
<wire x1="3.302" y1="1.397" x2="3.429" y2="1.524" width="0.1524" layer="21"/>
<wire x1="3.302" y1="1.397" x2="-3.302" y2="1.397" width="0.1524" layer="21"/>
<wire x1="3.302" y1="-1.397" x2="3.429" y2="-1.524" width="0.1524" layer="21"/>
<wire x1="3.302" y1="-1.397" x2="-3.302" y2="-1.397" width="0.1524" layer="21"/>
<wire x1="4.064" y1="1.524" x2="3.429" y2="1.524" width="0.1524" layer="21"/>
<wire x1="4.064" y1="-1.524" x2="3.429" y2="-1.524" width="0.1524" layer="21"/>
<wire x1="4.318" y1="-1.27" x2="4.318" y2="1.27" width="0.1524" layer="51"/>
<wire x1="5.08" y1="0" x2="4.699" y2="0" width="0.6096" layer="51"/>
<rectangle x1="-4.6228" y1="-0.3048" x2="-4.318" y2="0.3048" layer="51"/>
<rectangle x1="4.318" y1="-0.3048" x2="4.6228" y2="0.3048" layer="51"/>
<pad name="1" x="-5.08" y="0" drill="0.8128" diameter="2.54" shape="octagon"/>
<pad name="2" x="5.08" y="0" drill="0.8128" diameter="2.54" shape="octagon"/>
<text x="-4.191" y="1.905" size="1.27" layer="25" ratio="10">&gt;NAME</text>
<text x="-3.175" y="-0.6858" size="1.27" layer="27" ratio="10">&gt;VALUE</text>
</package>
</packages>
<symbols>
</symbols>
<devicesets>
</devicesets>
</library>
</drawing>
</eagle>
